{
    "collaborative": false,
    "description": "testDescription",
    "external_urls": {
        "spotify": "https:\/\/open.spotify.com\/playlist\/testPlaylist"
    },
    "followers": {
        "href": null,
        "total": 0
    },
    "href": "https:\/\/api.spotify.com\/v1\/playlists\/testPlaylist",
    "id": "testPlaylist",
    "images": [
        {
            "height": null,
            "url": "https:\/\/test.image.url\/image\/123456789",
            "width": null
        }
    ],
    "name": "testName",
    "owner": {
        "display_name": "testDisplayName",
        "external_urls": {
            "spotify": "https:\/\/open.spotify.com\/user\/testUser"
        },
        "href": "https:\/\/api.spotify.com\/v1\/users\/testUser",
        "id": "testUser",
        "type": "user",
        "uri": "spotify:user:testUser"
    },
    "primary_color": null,
    "public": false,
    "snapshot_id": "testSnapshotId",
    "tracks": {
        "href": "https:\/\/api.spotify.com\/v1\/playlists\/testPlaylist\/tracks?offset=0&limit=100",
        "items": [
            {
                "added_at": "2024-12-20T09:57:53Z",
                "added_by": {
                    "external_urls": {
                        "spotify": "https:\/\/open.spotify.com\/user\/testUser"
                    },
                    "href": "https:\/\/api.spotify.com\/v1\/users\/testUser",
                    "id": "testUser",
                    "type": "user",
                    "uri": "spotify:user:testUser"
                },
                "is_local": false,
                "primary_color": null,
                "track": {
                    "preview_url": null,
                    "available_markets": [
                        "AR",
                        "AU",
                        "AT",
                        "BE",
                        "BO",
                        "BR",
                        "BG",
                        "CA",
                        "CL",
                        "CO",
                        "CR",
                        "CY",
                        "CZ",
                        "DK",
                        "DO",
                        "DE",
                        "EC",
                        "EE",
                        "SV",
                        "FI",
                        "FR",
                        "GR",
                        "GT",
                        "HN",
                        "HK",
                        "HU",
                        "IS",
                        "IE",
                        "IT",
                        "LV",
                        "LT",
                        "LU",
                        "MY",
                        "MT",
                        "MX",
                        "NL",
                        "NZ",
                        "NI",
                        "NO",
                        "PA",
                        "PY",
                        "PE",
                        "PH",
                        "PL",
                        "PT",
                        "SG",
                        "SK",
                        "ES",
                        "SE",
                        "CH",
                        "TW",
                        "TR",
                        "UY",
                        "US",
                        "GB",
                        "AD",
                        "LI",
                        "MC",
                        "ID",
                        "JP",
                        "TH",
                        "VN",
                        "RO",
                        "IL",
                        "ZA",
                        "SA",
                        "AE",
                        "BH",
                        "QA",
                        "OM",
                        "KW",
                        "EG",
                        "MA",
                        "DZ",
                        "TN",
                        "LB",
                        "JO",
                        "PS",
                        "IN",
                        "BY",
                        "KZ",
                        "MD",
                        "UA",
                        "AL",
                        "BA",
                        "HR",
                        "ME",
                        "MK",
                        "RS",
                        "SI",
                        "KR",
                        "BD",
                        "PK",
                        "LK",
                        "GH",
                        "KE",
                        "NG",
                        "TZ",
                        "UG",
                        "AG",
                        "AM",
                        "BS",
                        "BB",
                        "BZ",
                        "BT",
                        "BW",
                        "BF",
                        "CV",
                        "CW",
                        "DM",
                        "FJ",
                        "GM",
                        "GE",
                        "GD",
                        "GW",
                        "GY",
                        "HT",
                        "JM",
                        "KI",
                        "LS",
                        "LR",
                        "MW",
                        "MV",
                        "ML",
                        "MH",
                        "FM",
                        "NA",
                        "NR",
                        "NE",
                        "PW",
                        "PG",
                        "WS",
                        "SM",
                        "ST",
                        "SN",
                        "SC",
                        "SL",
                        "SB",
                        "KN",
                        "LC",
                        "VC",
                        "SR",
                        "TL",
                        "TO",
                        "TT",
                        "TV",
                        "VU",
                        "AZ",
                        "BN",
                        "BI",
                        "KH",
                        "CM",
                        "TD",
                        "KM",
                        "GQ",
                        "SZ",
                        "GA",
                        "GN",
                        "KG",
                        "LA",
                        "MO",
                        "MR",
                        "MN",
                        "NP",
                        "RW",
                        "TG",
                        "UZ",
                        "ZW",
                        "BJ",
                        "MG",
                        "MU",
                        "MZ",
                        "AO",
                        "CI",
                        "DJ",
                        "ZM",
                        "CD",
                        "CG",
                        "IQ",
                        "LY",
                        "TJ",
                        "VE",
                        "ET",
                        "XK"
                    ],
                    "explicit": true,
                    "type": "track",
                    "episode": false,
                    "track": true,
                    "album": {
                        "available_markets": [
                            "AR",
                            "AU",
                            "AT",
                            "BE",
                            "BO",
                            "BR",
                            "BG",
                            "CA",
                            "CL",
                            "CO",
                            "CR",
                            "CY",
                            "CZ",
                            "DK",
                            "DO",
                            "DE",
                            "EC",
                            "EE",
                            "SV",
                            "FI",
                            "FR",
                            "GR",
                            "GT",
                            "HN",
                            "HK",
                            "HU",
                            "IS",
                            "IE",
                            "IT",
                            "LV",
                            "LT",
                            "LU",
                            "MY",
                            "MT",
                            "MX",
                            "NL",
                            "NZ",
                            "NI",
                            "NO",
                            "PA",
                            "PY",
                            "PE",
                            "PH",
                            "PL",
                            "PT",
                            "SG",
                            "SK",
                            "ES",
                            "SE",
                            "CH",
                            "TW",
                            "TR",
                            "UY",
                            "US",
                            "GB",
                            "AD",
                            "LI",
                            "MC",
                            "ID",
                            "JP",
                            "TH",
                            "VN",
                            "RO",
                            "IL",
                            "ZA",
                            "SA",
                            "AE",
                            "BH",
                            "QA",
                            "OM",
                            "KW",
                            "EG",
                            "MA",
                            "DZ",
                            "TN",
                            "LB",
                            "JO",
                            "PS",
                            "IN",
                            "BY",
                            "KZ",
                            "MD",
                            "UA",
                            "AL",
                            "BA",
                            "HR",
                            "ME",
                            "MK",
                            "RS",
                            "SI",
                            "KR",
                            "BD",
                            "PK",
                            "LK",
                            "GH",
                            "KE",
                            "NG",
                            "TZ",
                            "UG",
                            "AG",
                            "AM",
                            "BS",
                            "BB",
                            "BZ",
                            "BT",
                            "BW",
                            "BF",
                            "CV",
                            "CW",
                            "DM",
                            "FJ",
                            "GM",
                            "GE",
                            "GD",
                            "GW",
                            "GY",
                            "HT",
                            "JM",
                            "KI",
                            "LS",
                            "LR",
                            "MW",
                            "MV",
                            "ML",
                            "MH",
                            "FM",
                            "NA",
                            "NR",
                            "NE",
                            "PW",
                            "PG",
                            "WS",
                            "SM",
                            "ST",
                            "SN",
                            "SC",
                            "SL",
                            "SB",
                            "KN",
                            "LC",
                            "VC",
                            "SR",
                            "TL",
                            "TO",
                            "TT",
                            "TV",
                            "VU",
                            "AZ",
                            "BN",
                            "BI",
                            "KH",
                            "CM",
                            "TD",
                            "KM",
                            "GQ",
                            "SZ",
                            "GA",
                            "GN",
                            "KG",
                            "LA",
                            "MO",
                            "MR",
                            "MN",
                            "NP",
                            "RW",
                            "TG",
                            "UZ",
                            "ZW",
                            "BJ",
                            "MG",
                            "MU",
                            "MZ",
                            "AO",
                            "CI",
                            "DJ",
                            "ZM",
                            "CD",
                            "CG",
                            "IQ",
                            "LY",
                            "TJ",
                            "VE",
                            "ET",
                            "XK"
                        ],
                        "type": "album",
                        "album_type": "compilation",
                        "href": "https:\/\/api.spotify.com\/v1\/albums\/testAlbum",
                        "id": "testAlbum",
                        "images": [
                            {
                                "url": "https:\/\/test.image.url\/image\/123456789",
                                "width": 640,
                                "height": 640
                            },
                            {
                                "url": "https:\/\/test.image.url\/image\/123456789",
                                "width": 300,
                                "height": 300
                            },
                            {
                                "url": "https:\/\/test.image.url\/image\/123456789",
                                "width": 64,
                                "height": 64
                            }
                        ],
                        "name": "testName",
                        "release_date": "2007-06-12",
                        "release_date_precision": "day",
                        "uri": "spotify:album:testAlbum",
                        "artists": [
                            {
                                "external_urls": {
                                    "spotify": "https:\/\/open.spotify.com\/artist\/testArtist"
                                },
                                "href": "https:\/\/api.spotify.com\/v1\/artists\/testArtist",
                                "id": "testArtist",
                                "name": "testName",
                                "type": "artist",
                                "uri": "spotify:artist:testArtist"
                            }
                        ],
                        "external_urls": {
                            "spotify": "https:\/\/open.spotify.com\/album\/testAlbum"
                        },
                        "total_tracks": 20
                    },
                    "artists": [
                        {
                            "external_urls": {
                                "spotify": "https:\/\/open.spotify.com\/artist\/testArtist"
                            },
                            "href": "https:\/\/api.spotify.com\/v1\/artists\/testArtist",
                            "id": "testArtist",
                            "name": "testName",
                            "type": "artist",
                            "uri": "spotify:artist:testArtist"
                        }
                    ],
                    "disc_number": 1,
                    "track_number": 11,
                    "duration_ms": 217586,
                    "external_ids": {
                        "isrc": "testIsrc"
                    },
                    "external_urls": {
                        "spotify": "https:\/\/open.spotify.com\/track\/testTrack"
                    },
                    "href": "https:\/\/api.spotify.com\/v1\/tracks\/testTrack",
                    "id": "testTrack",
                    "name": "X Gon' Give It To Ya",
                    "popularity": 69,
                    "uri": "spotify:track:testTrack",
                    "is_local": false
                },
                "video_thumbnail": {
                    "url": null
                }
            }
        ],
        "limit": 100,
        "next": "https:\/\/api.spotify.com\/v1\/playlists\/testPlaylist\/tracks?offset=100&limit=100",
        "offset": 0,
        "previous": null,
        "total": 4200
    },
    "type": "playlist",
    "uri": "spotify:playlist:testPlaylist"
}