{
    "items": [
        {
            "external_urls": {
                "spotify": "https:\/\/open.spotify.com\/artist\/4R073T3AVJKqAsbzLmLW9u"
            },
            "followers": {
                "href": null,
                "total": 218880
            },
            "genres": [
                "art pop",
                "baroque pop",
                "experimental pop",
                "grave wave",
                "hypnagogic pop",
                "noise pop"
            ],
            "href": "https:\/\/api.spotify.com\/v1\/artists\/4R073T3AVJKqAsbzLmLW9u",
            "id": "4R073T3AVJKqAsbzLmLW9u",
            "images": [
                {
                    "height": 1198,
                    "url": "https:\/\/i.scdn.co\/image\/af13a858e5e047c3433e151f7fc3c9d8bd3c0598",
                    "width": 899
                },
                {
                    "height": 853,
                    "url": "https:\/\/i.scdn.co\/image\/c3ba0c904439b0f8cbb5727367cec5c0b7dbd33a",
                    "width": 640
                },
                {
                    "height": 267,
                    "url": "https:\/\/i.scdn.co\/image\/4f9218de39d42d27bbf37e471a616324fdc604ad",
                    "width": 200
                },
                {
                    "height": 85,
                    "url": "https:\/\/i.scdn.co\/image\/9c96bfdf75452fd08791414079499f20389ec028",
                    "width": 64
                }
            ],
            "name": "John Maus",
            "popularity": 48,
            "type": "artist",
            "uri": "spotify:artist:4R073T3AVJKqAsbzLmLW9u"
        }
    ],
    "total": 230,
    "limit": 20,
    "offset": 0,
    "href": "https:\/\/api.spotify.com\/v1\/me\/top\/artists?offset=0&limit=20&time_range=medium_term",
    "next": "https:\/\/api.spotify.com\/v1\/me\/top\/artists?offset=20&limit=20&time_range=medium_term",
    "previous": null
}